{
    "@context": "https://doi.org/10.5063/schema/codemeta-2.0",
    "@type": "SoftwareSourceCode",
    "license": "https://spdx.org/licenses/MIT",
    "codeRepository": "git+https://gitlab.com/theriot_lab/fish-wound-healing-nacl.git",
    "dateCreated": "2020-08-06",
    "datePublished": "2020-08-06",
    "dateModified": "2020-08-06",
    "name": "Electrical cues guide wound healing in zebrafish epidermis",
    "description": "Code and data to generate plots related to the manuscript Osmolarity-independent electrical cues guide rapid response to injury in zebrafish epidermis, eLife. doi: 10.7554/eLife.62386",
    "applicationCategory": "biology",
    "referencePublication": "https://doi.org/10.7554/eLife.62386",
    "programmingLanguage": [
        "MATLAB",
        "Python"
    ],
    "operatingSystem": [
        "Linux",
        "Windows",
        "macOS"
    ],
    "relatedLink": [
        "https://doi.org/10.7554/eLife.62386"
    ],
    "author": [
        {
            "@type": "Person",
            "@id": "https://orcid.org/0000-0002-0472-9144",
            "givenName": "Andrew",
            "familyName": "Kennard",
            "affiliation": {
                "@type": "Organization",
                "name": "Department of Biology, University of Washington, Seattle, WA, USA"
            }
        }
    ]
}