datasetID,originalFileFolder,processedFileFolder,pixelSizeXY,pixelSizeZ,downsampleFactor,timeStep,condition,fishNumber,clumpNumber,dateAcquired,preWoundTimepoint,hasValidBeforeAfterTimepoint,firstPostWoundingTimepoint,label
1,/Users/akennard/Analysis/2019-05-11_Np63Gal4_injUASmNG-P2A-mRuby3-CAAX/CroppedCells/Hypo/Fish1/cell02/deconvolved,/Users/akennard/Analysis/2019-05-11_Np63Gal4_injUASmNG-P2A-mRuby3-CAAX/CroppedCells/Hypo/Fish1/cell02/deconvolved,0.2323,0.25,2,45,Hypo,1,2,20190511,0,1,2,none
2,/Users/akennard/Analysis/2019-05-11_Np63Gal4_injUASmNG-P2A-mRuby3-CAAX/CroppedCells/Hypo/Fish1/cell05/deconvolved,/Users/akennard/Analysis/2019-05-11_Np63Gal4_injUASmNG-P2A-mRuby3-CAAX/CroppedCells/Hypo/Fish1/cell05/deconvolved,0.2323,0.25,2,45,Hypo,1,5,20190511,0,1,2,none
4,/Users/akennard/Analysis/2019-05-11_Np63Gal4_injUASmNG-P2A-mRuby3-CAAX/CroppedCells/Hypo/Fish1/cell03/deconvolved,/Users/akennard/Analysis/2019-05-11_Np63Gal4_injUASmNG-P2A-mRuby3-CAAX/CroppedCells/Hypo/Fish1/cell03/deconvolved,0.2323,0.25,2,45,Hypo,1,3,20190511,0,1,2,none
5,/Users/akennard/Analysis/2019-05-11_Np63Gal4_injUASmNG-P2A-mRuby3-CAAX/CroppedCells/Hypo/Fish1/cell06/deconvolved,/Users/akennard/Analysis/2019-05-11_Np63Gal4_injUASmNG-P2A-mRuby3-CAAX/CroppedCells/Hypo/Fish1/cell06/deconvolved,0.2323,0.25,2,45,Hypo,1,6,20190511,0,1,2,none
6,/Users/akennard/Analysis/2019-05-11_Np63Gal4_injUASmNG-P2A-mRuby3-CAAX/CroppedCells/Hypo/Fish1/cell01/deconvolved,/Users/akennard/Analysis/2019-05-11_Np63Gal4_injUASmNG-P2A-mRuby3-CAAX/CroppedCells/Hypo/Fish1/cell01/deconvolved,0.2323,0.25,2,45,Hypo,1,1,20190511,0,1,2,none
9,/Users/akennard/Analysis/2019-05-11_Np63Gal4_injUASmNG-P2A-mRuby3-CAAX/CroppedCells/Hypo/Fish1/cell07/deconvolved,/Users/akennard/Analysis/2019-05-11_Np63Gal4_injUASmNG-P2A-mRuby3-CAAX/CroppedCells/Hypo/Fish1/cell07/deconvolved,0.2323,0.25,2,45,Hypo,1,7,20190511,0,1,2,none
10,/Users/akennard/Analysis/2019-05-11_Np63Gal4_injUASmNG-P2A-mRuby3-CAAX/CroppedCells/NaCl/Fish5/cell02/deconvolved,/Users/akennard/Analysis/2019-05-11_Np63Gal4_injUASmNG-P2A-mRuby3-CAAX/CroppedCells/NaCl/Fish5/cell02/deconvolved,0.2323,0.25,2,45,NaCl,5,2,20190511,0,1,2,NaCl135mM
11,/Users/akennard/Analysis/2019-05-11_Np63Gal4_injUASmNG-P2A-mRuby3-CAAX/CroppedCells/NaCl/Fish5/cell05/deconvolved,/Users/akennard/Analysis/2019-05-11_Np63Gal4_injUASmNG-P2A-mRuby3-CAAX/CroppedCells/NaCl/Fish5/cell05/deconvolved,0.2323,0.25,2,45,NaCl,5,5,20190511,0,1,2,NaCl135mM
12,/Users/akennard/Analysis/2019-05-11_Np63Gal4_injUASmNG-P2A-mRuby3-CAAX/CroppedCells/NaCl/Fish5/cell04/deconvolved,/Users/akennard/Analysis/2019-05-11_Np63Gal4_injUASmNG-P2A-mRuby3-CAAX/CroppedCells/NaCl/Fish5/cell04/deconvolved,0.2323,0.25,2,45,NaCl,5,4,20190511,0,1,2,NaCl135mM
13,/Users/akennard/Analysis/2019-05-11_Np63Gal4_injUASmNG-P2A-mRuby3-CAAX/CroppedCells/NaCl/Fish5/cell03/deconvolved,/Users/akennard/Analysis/2019-05-11_Np63Gal4_injUASmNG-P2A-mRuby3-CAAX/CroppedCells/NaCl/Fish5/cell03/deconvolved,0.2323,0.25,2,45,NaCl,5,3,20190511,0,1,2,NaCl135mM
14,/Users/akennard/Analysis/2019-05-11_Np63Gal4_injUASmNG-P2A-mRuby3-CAAX/CroppedCells/NaCl/Fish5/cell01/deconvolved,/Users/akennard/Analysis/2019-05-11_Np63Gal4_injUASmNG-P2A-mRuby3-CAAX/CroppedCells/NaCl/Fish5/cell01/deconvolved,0.2323,0.25,2,45,NaCl,5,1,20190511,0,1,2,NaCl135mM
15,/Users/akennard/Analysis/2019-05-11_Np63Gal4_injUASmNG-P2A-mRuby3-CAAX/CroppedCells/CholineCl/Fish8/cell02/deconvolved,/Users/akennard/Analysis/2019-05-11_Np63Gal4_injUASmNG-P2A-mRuby3-CAAX/CroppedCells/CholineCl/Fish8/cell02/deconvolved,0.2323,0.25,2,45,CholineCl,8,2,20190511,0,1,2,CholineCl135mM
16,/Users/akennard/Analysis/2019-05-11_Np63Gal4_injUASmNG-P2A-mRuby3-CAAX/CroppedCells/CholineCl/Fish8/cell03/deconvolved,/Users/akennard/Analysis/2019-05-11_Np63Gal4_injUASmNG-P2A-mRuby3-CAAX/CroppedCells/CholineCl/Fish8/cell03/deconvolved,0.2323,0.25,2,45,CholineCl,8,3,20190511,0,1,2,CholineCl135mM
17,/Users/akennard/Analysis/2019-05-11_Np63Gal4_injUASmNG-P2A-mRuby3-CAAX/CroppedCells/CholineCl/Fish8/cell01/deconvolved,/Users/akennard/Analysis/2019-05-11_Np63Gal4_injUASmNG-P2A-mRuby3-CAAX/CroppedCells/CholineCl/Fish8/cell01/deconvolved,0.2323,0.25,2,45,CholineCl,8,1,20190511,0,1,2,CholineCl135mM
18,/Users/akennard/Analysis/2019-05-11_Np63Gal4_injUASmNG-P2A-mRuby3-CAAX/CroppedCells/CholineCl/Fish9/cell02/deconvolved,/Users/akennard/Analysis/2019-05-11_Np63Gal4_injUASmNG-P2A-mRuby3-CAAX/CroppedCells/CholineCl/Fish9/cell02/deconvolved,0.2323,0.25,2,45,CholineCl,9,2,20190511,0,1,2,CholineCl135mM
20,/Users/akennard/Analysis/2019-06-13_3dpf_Np63ix_injUASmNeonGreen/CroppedCells/Hypo/Fish2/cell02/deconvolved,/Users/akennard/Analysis/2019-06-13_3dpf_Np63ix_injUASmNeonGreen/CroppedCells/Hypo/Fish2/cell02/deconvolved,0.2323,0.25,2,45,Hypo,2,2,20190613,1,1,3,none
21,/Users/akennard/Analysis/2019-06-13_3dpf_Np63ix_injUASmNeonGreen/CroppedCells/Hypo/Fish2/cell03/deconvolved,/Users/akennard/Analysis/2019-06-13_3dpf_Np63ix_injUASmNeonGreen/CroppedCells/Hypo/Fish2/cell03/deconvolved,0.2323,0.25,2,45,Hypo,2,3,20190613,1,1,3,none
22,/Users/akennard/Analysis/2019-06-13_3dpf_Np63ix_injUASmNeonGreen/CroppedCells/Hypo/Fish2/cell01/deconvolved,/Users/akennard/Analysis/2019-06-13_3dpf_Np63ix_injUASmNeonGreen/CroppedCells/Hypo/Fish2/cell01/deconvolved,0.2323,0.25,2,45,Hypo,2,1,20190613,1,1,3,none
23,/Users/akennard/Analysis/2019-06-13_3dpf_Np63ix_injUASmNeonGreen/CroppedCells/Hypo/Fish4/cell10/deconvolved,/Users/akennard/Analysis/2019-06-13_3dpf_Np63ix_injUASmNeonGreen/CroppedCells/Hypo/Fish4/cell10/deconvolved,0.2323,0.25,2,45,Hypo,4,10,20190613,1,1,3,none
24,/Users/akennard/Analysis/2019-06-13_3dpf_Np63ix_injUASmNeonGreen/CroppedCells/Hypo/Fish4/cell02/deconvolved,/Users/akennard/Analysis/2019-06-13_3dpf_Np63ix_injUASmNeonGreen/CroppedCells/Hypo/Fish4/cell02/deconvolved,0.2323,0.25,2,45,Hypo,4,2,20190613,1,1,3,none
25,/Users/akennard/Analysis/2019-06-13_3dpf_Np63ix_injUASmNeonGreen/CroppedCells/Hypo/Fish4/cell05/deconvolved,/Users/akennard/Analysis/2019-06-13_3dpf_Np63ix_injUASmNeonGreen/CroppedCells/Hypo/Fish4/cell05/deconvolved,0.2323,0.25,2,45,Hypo,4,5,20190613,1,1,3,none
26,/Users/akennard/Analysis/2019-06-13_3dpf_Np63ix_injUASmNeonGreen/CroppedCells/Hypo/Fish4/cell04/deconvolved,/Users/akennard/Analysis/2019-06-13_3dpf_Np63ix_injUASmNeonGreen/CroppedCells/Hypo/Fish4/cell04/deconvolved,0.2323,0.25,2,45,Hypo,4,4,20190613,1,1,3,none
28,/Users/akennard/Analysis/2019-06-13_3dpf_Np63ix_injUASmNeonGreen/CroppedCells/Hypo/Fish4/cell06/deconvolved,/Users/akennard/Analysis/2019-06-13_3dpf_Np63ix_injUASmNeonGreen/CroppedCells/Hypo/Fish4/cell06/deconvolved,0.2323,0.25,2,45,Hypo,4,6,20190613,1,0,3,none
29,/Users/akennard/Analysis/2019-06-13_3dpf_Np63ix_injUASmNeonGreen/CroppedCells/Hypo/Fish4/cell01/deconvolved,/Users/akennard/Analysis/2019-06-13_3dpf_Np63ix_injUASmNeonGreen/CroppedCells/Hypo/Fish4/cell01/deconvolved,0.2323,0.25,2,45,Hypo,4,1,20190613,1,1,3,none
30,/Users/akennard/Analysis/2019-06-13_3dpf_Np63ix_injUASmNeonGreen/CroppedCells/Hypo/Fish4/cell08/deconvolved,/Users/akennard/Analysis/2019-06-13_3dpf_Np63ix_injUASmNeonGreen/CroppedCells/Hypo/Fish4/cell08/deconvolved,0.2323,0.25,2,45,Hypo,4,8,20190613,1,1,3,none
31,/Users/akennard/Analysis/2019-06-13_3dpf_Np63ix_injUASmNeonGreen/CroppedCells/Hypo/Fish4/cell09/deconvolved,/Users/akennard/Analysis/2019-06-13_3dpf_Np63ix_injUASmNeonGreen/CroppedCells/Hypo/Fish4/cell09/deconvolved,0.2323,0.25,2,45,Hypo,4,9,20190613,1,1,3,none
32,/Users/akennard/Analysis/2019-06-13_3dpf_Np63ix_injUASmNeonGreen/CroppedCells/Hypo/Fish4/cell07/deconvolved,/Users/akennard/Analysis/2019-06-13_3dpf_Np63ix_injUASmNeonGreen/CroppedCells/Hypo/Fish4/cell07/deconvolved,0.2323,0.25,2,45,Hypo,4,7,20190613,1,1,3,none
33,/Users/akennard/Analysis/2019-06-13_3dpf_Np63ix_injUASmNeonGreen/CroppedCells/Hypo/Fish1/cell02/deconvolved,/Users/akennard/Analysis/2019-06-13_3dpf_Np63ix_injUASmNeonGreen/CroppedCells/Hypo/Fish1/cell02/deconvolved,0.2323,0.25,2,45,Hypo,1,2,20190613,1,1,3,none
35,/Users/akennard/Analysis/2019-06-13_3dpf_Np63ix_injUASmNeonGreen/CroppedCells/Hypo/Fish1/cell04/deconvolved,/Users/akennard/Analysis/2019-06-13_3dpf_Np63ix_injUASmNeonGreen/CroppedCells/Hypo/Fish1/cell04/deconvolved,0.2323,0.25,2,45,Hypo,1,4,20190613,1,1,3,none
36,/Users/akennard/Analysis/2019-06-13_3dpf_Np63ix_injUASmNeonGreen/CroppedCells/Hypo/Fish1/cell03/deconvolved,/Users/akennard/Analysis/2019-06-13_3dpf_Np63ix_injUASmNeonGreen/CroppedCells/Hypo/Fish1/cell03/deconvolved,0.2323,0.25,2,45,Hypo,1,3,20190613,1,1,3,none
37,/Users/akennard/Analysis/2019-06-13_3dpf_Np63ix_injUASmNeonGreen/CroppedCells/Hypo/Fish1/cell06/deconvolved,/Users/akennard/Analysis/2019-06-13_3dpf_Np63ix_injUASmNeonGreen/CroppedCells/Hypo/Fish1/cell06/deconvolved,0.2323,0.25,2,45,Hypo,1,6,20190613,1,1,3,none
38,/Users/akennard/Analysis/2019-06-13_3dpf_Np63ix_injUASmNeonGreen/CroppedCells/Hypo/Fish1/cell01/deconvolved,/Users/akennard/Analysis/2019-06-13_3dpf_Np63ix_injUASmNeonGreen/CroppedCells/Hypo/Fish1/cell01/deconvolved,0.2323,0.25,2,45,Hypo,1,1,20190613,1,1,3,none
40,/Users/akennard/Analysis/2019-06-13_3dpf_Np63ix_injUASmNeonGreen/CroppedCells/Hypo/Fish1/cell07/deconvolved,/Users/akennard/Analysis/2019-06-13_3dpf_Np63ix_injUASmNeonGreen/CroppedCells/Hypo/Fish1/cell07/deconvolved,0.2323,0.25,2,45,Hypo,1,7,20190613,1,1,3,none
42,/Users/akennard/Analysis/2019-06-13_3dpf_Np63ix_injUASmNeonGreen/CroppedCells/NaCl/Fish2/cell02/deconvolved,/Users/akennard/Analysis/2019-06-13_3dpf_Np63ix_injUASmNeonGreen/CroppedCells/NaCl/Fish2/cell02/deconvolved,0.2323,0.25,2,45,NaCl,2,2,20190613,1,1,3,NaCl135mM
43,/Users/akennard/Analysis/2019-06-13_3dpf_Np63ix_injUASmNeonGreen/CroppedCells/NaCl/Fish2/cell05/deconvolved,/Users/akennard/Analysis/2019-06-13_3dpf_Np63ix_injUASmNeonGreen/CroppedCells/NaCl/Fish2/cell05/deconvolved,0.2323,0.25,2,45,NaCl,2,5,20190613,1,0,3,NaCl135mM
45,/Users/akennard/Analysis/2019-06-13_3dpf_Np63ix_injUASmNeonGreen/CroppedCells/NaCl/Fish2/cell03/deconvolved,/Users/akennard/Analysis/2019-06-13_3dpf_Np63ix_injUASmNeonGreen/CroppedCells/NaCl/Fish2/cell03/deconvolved,0.2323,0.25,2,45,NaCl,2,3,20190613,1,1,3,NaCl135mM
46,/Users/akennard/Analysis/2019-06-13_3dpf_Np63ix_injUASmNeonGreen/CroppedCells/NaCl/Fish2/cell06/deconvolved,/Users/akennard/Analysis/2019-06-13_3dpf_Np63ix_injUASmNeonGreen/CroppedCells/NaCl/Fish2/cell06/deconvolved,0.2323,0.25,2,45,NaCl,2,6,20190613,1,0,3,NaCl135mM
47,/Users/akennard/Analysis/2019-06-13_3dpf_Np63ix_injUASmNeonGreen/CroppedCells/NaCl/Fish2/cell01/deconvolved,/Users/akennard/Analysis/2019-06-13_3dpf_Np63ix_injUASmNeonGreen/CroppedCells/NaCl/Fish2/cell01/deconvolved,0.2323,0.25,2,45,NaCl,2,1,20190613,1,1,3,NaCl135mM
48,/Users/akennard/Analysis/2019-06-13_3dpf_Np63ix_injUASmNeonGreen/CroppedCells/NaCl/Fish2/cell08/deconvolved,/Users/akennard/Analysis/2019-06-13_3dpf_Np63ix_injUASmNeonGreen/CroppedCells/NaCl/Fish2/cell08/deconvolved,0.2323,0.25,2,45,NaCl,2,8,20190613,1,0,3,NaCl135mM
49,/Users/akennard/Analysis/2019-06-13_3dpf_Np63ix_injUASmNeonGreen/CroppedCells/NaCl/Fish2/cell09/deconvolved,/Users/akennard/Analysis/2019-06-13_3dpf_Np63ix_injUASmNeonGreen/CroppedCells/NaCl/Fish2/cell09/deconvolved,0.2323,0.25,2,45,NaCl,2,9,20190613,1,1,3,NaCl135mM
50,/Users/akennard/Analysis/2019-06-13_3dpf_Np63ix_injUASmNeonGreen/CroppedCells/NaCl/Fish2/cell07/deconvolved,/Users/akennard/Analysis/2019-06-13_3dpf_Np63ix_injUASmNeonGreen/CroppedCells/NaCl/Fish2/cell07/deconvolved,0.2323,0.25,2,45,NaCl,2,7,20190613,1,1,3,NaCl135mM
52,/Users/akennard/Analysis/2019-06-13_3dpf_Np63ix_injUASmNeonGreen/CroppedCells/NaCl/Fish1/cell04/deconvolved,/Users/akennard/Analysis/2019-06-13_3dpf_Np63ix_injUASmNeonGreen/CroppedCells/NaCl/Fish1/cell04/deconvolved,0.2323,0.25,2,45,NaCl,1,4,20190613,1,0,3,NaCl135mM
53,/Users/akennard/Analysis/2019-06-13_3dpf_Np63ix_injUASmNeonGreen/CroppedCells/NaCl/Fish1/cell03/deconvolved,/Users/akennard/Analysis/2019-06-13_3dpf_Np63ix_injUASmNeonGreen/CroppedCells/NaCl/Fish1/cell03/deconvolved,0.2323,0.25,2,45,NaCl,1,3,20190613,1,1,3,NaCl135mM
55,/Users/akennard/Analysis/2019-06-13_3dpf_Np63ix_injUASmNeonGreen/CroppedCells/NaGluconate/Fish2/cell01/deconvolved,/Users/akennard/Analysis/2019-06-13_3dpf_Np63ix_injUASmNeonGreen/CroppedCells/NaGluconate/Fish2/cell01/deconvolved,0.2323,0.25,2,45,NaGluconate,2,1,20190613,1,1,3,NaGluconate135mM
56,/Users/akennard/Analysis/2019-06-13_3dpf_Np63ix_injUASmNeonGreen/CroppedCells/NaGluconate/Fish5/cell02/deconvolved,/Users/akennard/Analysis/2019-06-13_3dpf_Np63ix_injUASmNeonGreen/CroppedCells/NaGluconate/Fish5/cell02/deconvolved,0.2323,0.25,2,45,NaGluconate,5,2,20190613,1,0,3,NaGluconate135mM
58,/Users/akennard/Analysis/2019-06-13_3dpf_Np63ix_injUASmNeonGreen/CroppedCells/NaGluconate/Fish4/cell02/deconvolved,/Users/akennard/Analysis/2019-06-13_3dpf_Np63ix_injUASmNeonGreen/CroppedCells/NaGluconate/Fish4/cell02/deconvolved,0.2323,0.25,2,45,NaGluconate,4,2,20190613,1,1,3,NaGluconate135mM
60,/Users/akennard/Analysis/2019-06-13_3dpf_Np63ix_injUASmNeonGreen/CroppedCells/NaGluconate/Fish4/cell03/deconvolved,/Users/akennard/Analysis/2019-06-13_3dpf_Np63ix_injUASmNeonGreen/CroppedCells/NaGluconate/Fish4/cell03/deconvolved,0.2323,0.25,2,45,NaGluconate,4,3,20190613,0,1,3,NaGluconate135mM
61,/Users/akennard/Analysis/2019-06-13_3dpf_Np63ix_injUASmNeonGreen/CroppedCells/NaGluconate/Fish4/cell01/deconvolved,/Users/akennard/Analysis/2019-06-13_3dpf_Np63ix_injUASmNeonGreen/CroppedCells/NaGluconate/Fish4/cell01/deconvolved,0.2323,0.25,2,45,NaGluconate,4,1,20190613,1,1,3,NaGluconate135mM
62,/Users/akennard/Analysis/2019-06-13_3dpf_Np63ix_injUASmNeonGreen/CroppedCells/NaGluconate/Fish3/cell02/deconvolved,/Users/akennard/Analysis/2019-06-13_3dpf_Np63ix_injUASmNeonGreen/CroppedCells/NaGluconate/Fish3/cell02/deconvolved,0.2323,0.25,2,45,NaGluconate,3,2,20190613,1,1,3,NaGluconate135mM
63,/Users/akennard/Analysis/2019-06-13_3dpf_Np63ix_injUASmNeonGreen/CroppedCells/NaGluconate/Fish3/cell05/deconvolved,/Users/akennard/Analysis/2019-06-13_3dpf_Np63ix_injUASmNeonGreen/CroppedCells/NaGluconate/Fish3/cell05/deconvolved,0.2323,0.25,2,45,NaGluconate,3,5,20190613,1,1,3,NaGluconate135mM
64,/Users/akennard/Analysis/2019-06-13_3dpf_Np63ix_injUASmNeonGreen/CroppedCells/NaGluconate/Fish3/cell04/deconvolved,/Users/akennard/Analysis/2019-06-13_3dpf_Np63ix_injUASmNeonGreen/CroppedCells/NaGluconate/Fish3/cell04/deconvolved,0.2323,0.25,2,45,NaGluconate,3,4,20190613,1,1,3,NaGluconate135mM
65,/Users/akennard/Analysis/2019-06-13_3dpf_Np63ix_injUASmNeonGreen/CroppedCells/NaGluconate/Fish3/cell03/deconvolved,/Users/akennard/Analysis/2019-06-13_3dpf_Np63ix_injUASmNeonGreen/CroppedCells/NaGluconate/Fish3/cell03/deconvolved,0.2323,0.25,2,45,NaGluconate,3,3,20190613,1,1,3,NaGluconate135mM
66,/Users/akennard/Analysis/2019-06-13_3dpf_Np63ix_injUASmNeonGreen/CroppedCells/NaGluconate/Fish3/cell06/deconvolved,/Users/akennard/Analysis/2019-06-13_3dpf_Np63ix_injUASmNeonGreen/CroppedCells/NaGluconate/Fish3/cell06/deconvolved,0.2323,0.25,2,45,NaGluconate,3,6,20190613,1,1,3,NaGluconate135mM
67,/Users/akennard/Analysis/2019-06-13_3dpf_Np63ix_injUASmNeonGreen/CroppedCells/NaGluconate/Fish3/cell01/deconvolved,/Users/akennard/Analysis/2019-06-13_3dpf_Np63ix_injUASmNeonGreen/CroppedCells/NaGluconate/Fish3/cell01/deconvolved,0.2323,0.25,2,45,NaGluconate,3,1,20190613,1,1,3,NaGluconate135mM
68,/Users/akennard/Analysis/2019-06-13_3dpf_Np63ix_injUASmNeonGreen/CroppedCells/NaGluconate/Fish3/cell08/deconvolved,/Users/akennard/Analysis/2019-06-13_3dpf_Np63ix_injUASmNeonGreen/CroppedCells/NaGluconate/Fish3/cell08/deconvolved,0.2323,0.25,2,45,NaGluconate,3,8,20190613,1,1,3,NaGluconate135mM
69,/Users/akennard/Analysis/2019-06-13_3dpf_Np63ix_injUASmNeonGreen/CroppedCells/NaGluconate/Fish3/cell07/deconvolved,/Users/akennard/Analysis/2019-06-13_3dpf_Np63ix_injUASmNeonGreen/CroppedCells/NaGluconate/Fish3/cell07/deconvolved,0.2323,0.25,2,45,NaGluconate,3,7,20190613,1,1,3,NaGluconate135mM
70,/Users/akennard/Analysis/2019-06-13_3dpf_Np63ix_injUASmNeonGreen/CroppedCells/NaGluconate/Fish6/cell02/deconvolved,/Users/akennard/Analysis/2019-06-13_3dpf_Np63ix_injUASmNeonGreen/CroppedCells/NaGluconate/Fish6/cell02/deconvolved,0.2323,0.25,2,45,NaGluconate,6,2,20190613,1,1,3,NaGluconate135mM
72,/Users/akennard/Analysis/2019-06-13_3dpf_Np63ix_injUASmNeonGreen/CroppedCells/NaGluconate/Fish6/cell04/deconvolved,/Users/akennard/Analysis/2019-06-13_3dpf_Np63ix_injUASmNeonGreen/CroppedCells/NaGluconate/Fish6/cell04/deconvolved,0.2323,0.25,2,45,NaGluconate,6,4,20190613,1,1,3,NaGluconate135mM
73,/Users/akennard/Analysis/2019-06-13_3dpf_Np63ix_injUASmNeonGreen/CroppedCells/NaGluconate/Fish6/cell03/deconvolved,/Users/akennard/Analysis/2019-06-13_3dpf_Np63ix_injUASmNeonGreen/CroppedCells/NaGluconate/Fish6/cell03/deconvolved,0.2323,0.25,2,45,NaGluconate,6,3,20190613,1,1,3,NaGluconate135mM
75,/Users/akennard/Analysis/2019-06-13_3dpf_Np63ix_injUASmNeonGreen/CroppedCells/NaGluconate/Fish6/cell01/deconvolved,/Users/akennard/Analysis/2019-06-13_3dpf_Np63ix_injUASmNeonGreen/CroppedCells/NaGluconate/Fish6/cell01/deconvolved,0.2323,0.25,2,45,NaGluconate,6,1,20190613,1,1,3,NaGluconate135mM
76,/Users/akennard/Analysis/2019-06-13_3dpf_Np63ix_injUASmNeonGreen/CroppedCells/NaGluconate/Fish1/cell02/deconvolved,/Users/akennard/Analysis/2019-06-13_3dpf_Np63ix_injUASmNeonGreen/CroppedCells/NaGluconate/Fish1/cell02/deconvolved,0.2323,0.25,2,45,NaGluconate,1,2,20190613,1,1,3,NaGluconate135mM
77,/Users/akennard/Analysis/2019-06-13_3dpf_Np63ix_injUASmNeonGreen/CroppedCells/NaGluconate/Fish1/cell05/deconvolved,/Users/akennard/Analysis/2019-06-13_3dpf_Np63ix_injUASmNeonGreen/CroppedCells/NaGluconate/Fish1/cell05/deconvolved,0.2323,0.25,2,45,NaGluconate,1,5,20190613,1,1,3,NaGluconate135mM
78,/Users/akennard/Analysis/2019-06-13_3dpf_Np63ix_injUASmNeonGreen/CroppedCells/NaGluconate/Fish1/cell04/deconvolved,/Users/akennard/Analysis/2019-06-13_3dpf_Np63ix_injUASmNeonGreen/CroppedCells/NaGluconate/Fish1/cell04/deconvolved,0.2323,0.25,2,45,NaGluconate,1,4,20190613,1,1,3,NaGluconate135mM
79,/Users/akennard/Analysis/2019-06-13_3dpf_Np63ix_injUASmNeonGreen/CroppedCells/NaGluconate/Fish1/cell03/deconvolved,/Users/akennard/Analysis/2019-06-13_3dpf_Np63ix_injUASmNeonGreen/CroppedCells/NaGluconate/Fish1/cell03/deconvolved,0.2323,0.25,2,45,NaGluconate,1,3,20190613,1,1,3,NaGluconate135mM
81,/Users/akennard/Analysis/2019-06-13_3dpf_Np63ix_injUASmNeonGreen/CroppedCells/CholineCl/Fish2/cell02/deconvolved,/Users/akennard/Analysis/2019-06-13_3dpf_Np63ix_injUASmNeonGreen/CroppedCells/CholineCl/Fish2/cell02/deconvolved,0.2323,0.25,2,45,CholineCl,2,2,20190613,1,1,3,CholineCl135mM
83,/Users/akennard/Analysis/2019-06-13_3dpf_Np63ix_injUASmNeonGreen/CroppedCells/CholineCl/Fish2/cell04/deconvolved,/Users/akennard/Analysis/2019-06-13_3dpf_Np63ix_injUASmNeonGreen/CroppedCells/CholineCl/Fish2/cell04/deconvolved,0.2323,0.25,2,45,CholineCl,2,4,20190613,1,1,3,CholineCl135mM
85,/Users/akennard/Analysis/2019-06-13_3dpf_Np63ix_injUASmNeonGreen/CroppedCells/CholineCl/Fish2/cell06/deconvolved,/Users/akennard/Analysis/2019-06-13_3dpf_Np63ix_injUASmNeonGreen/CroppedCells/CholineCl/Fish2/cell06/deconvolved,0.2323,0.25,2,45,CholineCl,2,6,20190613,1,1,3,CholineCl135mM
86,/Users/akennard/Analysis/2019-06-13_3dpf_Np63ix_injUASmNeonGreen/CroppedCells/CholineCl/Fish2/cell01/deconvolved,/Users/akennard/Analysis/2019-06-13_3dpf_Np63ix_injUASmNeonGreen/CroppedCells/CholineCl/Fish2/cell01/deconvolved,0.2323,0.25,2,45,CholineCl,2,1,20190613,1,1,3,CholineCl135mM
88,/Users/akennard/Analysis/2019-06-13_3dpf_Np63ix_injUASmNeonGreen/CroppedCells/CholineCl/Fish3/cell02/deconvolved,/Users/akennard/Analysis/2019-06-13_3dpf_Np63ix_injUASmNeonGreen/CroppedCells/CholineCl/Fish3/cell02/deconvolved,0.2323,0.25,2,45,CholineCl,3,2,20190613,1,1,3,CholineCl135mM
89,/Users/akennard/Analysis/2019-06-13_3dpf_Np63ix_injUASmNeonGreen/CroppedCells/CholineCl/Fish3/cell05/deconvolved,/Users/akennard/Analysis/2019-06-13_3dpf_Np63ix_injUASmNeonGreen/CroppedCells/CholineCl/Fish3/cell05/deconvolved,0.2323,0.25,2,45,CholineCl,3,5,20190613,1,1,3,CholineCl135mM
90,/Users/akennard/Analysis/2019-06-13_3dpf_Np63ix_injUASmNeonGreen/CroppedCells/CholineCl/Fish3/cell04/deconvolved,/Users/akennard/Analysis/2019-06-13_3dpf_Np63ix_injUASmNeonGreen/CroppedCells/CholineCl/Fish3/cell04/deconvolved,0.2323,0.25,2,45,CholineCl,3,4,20190613,1,1,3,CholineCl135mM
91,/Users/akennard/Analysis/2019-06-13_3dpf_Np63ix_injUASmNeonGreen/CroppedCells/CholineCl/Fish3/cell03/deconvolved,/Users/akennard/Analysis/2019-06-13_3dpf_Np63ix_injUASmNeonGreen/CroppedCells/CholineCl/Fish3/cell03/deconvolved,0.2323,0.25,2,45,CholineCl,3,3,20190613,1,1,3,CholineCl135mM
92,/Users/akennard/Analysis/2019-06-13_3dpf_Np63ix_injUASmNeonGreen/CroppedCells/CholineCl/Fish3/cell01/deconvolved,/Users/akennard/Analysis/2019-06-13_3dpf_Np63ix_injUASmNeonGreen/CroppedCells/CholineCl/Fish3/cell01/deconvolved,0.2323,0.25,2,45,CholineCl,3,1,20190613,1,1,3,CholineCl135mM
93,/Users/akennard/Analysis/2019-06-13_3dpf_Np63ix_injUASmNeonGreen/CroppedCells/CholineCl/Fish1/cell02/deconvolved,/Users/akennard/Analysis/2019-06-13_3dpf_Np63ix_injUASmNeonGreen/CroppedCells/CholineCl/Fish1/cell02/deconvolved,0.2323,0.25,2,45,CholineCl,1,2,20190613,1,1,3,CholineCl135mM
94,/Users/akennard/Analysis/2019-06-13_3dpf_Np63ix_injUASmNeonGreen/CroppedCells/CholineCl/Fish1/cell01/deconvolved,/Users/akennard/Analysis/2019-06-13_3dpf_Np63ix_injUASmNeonGreen/CroppedCells/CholineCl/Fish1/cell01/deconvolved,0.2323,0.25,2,45,CholineCl,1,1,20190613,0,1,3,CholineCl135mM
95,/Users/akennard/Analysis/2019-06-13_3dpf_Np63ix_injUASmNeonGreen/CroppedCells/Unwounded/Fish2/cell02/deconvolved,/Users/akennard/Analysis/2019-06-13_3dpf_Np63ix_injUASmNeonGreen/CroppedCells/Unwounded/Fish2/cell02/deconvolved,0.2323,0.25,2,45,Unwounded,2,2,20190613,1,1,3,noWound
96,/Users/akennard/Analysis/2019-06-13_3dpf_Np63ix_injUASmNeonGreen/CroppedCells/Unwounded/Fish2/cell05/deconvolved,/Users/akennard/Analysis/2019-06-13_3dpf_Np63ix_injUASmNeonGreen/CroppedCells/Unwounded/Fish2/cell05/deconvolved,0.2323,0.25,2,45,Unwounded,2,5,20190613,1,1,3,noWound
98,/Users/akennard/Analysis/2019-06-13_3dpf_Np63ix_injUASmNeonGreen/CroppedCells/Unwounded/Fish2/cell03/deconvolved,/Users/akennard/Analysis/2019-06-13_3dpf_Np63ix_injUASmNeonGreen/CroppedCells/Unwounded/Fish2/cell03/deconvolved,0.2323,0.25,2,45,Unwounded,2,3,20190613,1,1,3,noWound
99,/Users/akennard/Analysis/2019-06-13_3dpf_Np63ix_injUASmNeonGreen/CroppedCells/Unwounded/Fish2/cell06/deconvolved,/Users/akennard/Analysis/2019-06-13_3dpf_Np63ix_injUASmNeonGreen/CroppedCells/Unwounded/Fish2/cell06/deconvolved,0.2323,0.25,2,45,Unwounded,2,6,20190613,1,1,3,noWound
101,/Users/akennard/Analysis/2019-06-13_3dpf_Np63ix_injUASmNeonGreen/CroppedCells/Unwounded/Fish2/cell07/deconvolved,/Users/akennard/Analysis/2019-06-13_3dpf_Np63ix_injUASmNeonGreen/CroppedCells/Unwounded/Fish2/cell07/deconvolved,0.2323,0.25,2,45,Unwounded,2,7,20190613,1,1,3,noWound
102,/Users/akennard/Analysis/2019-06-13_3dpf_Np63ix_injUASmNeonGreen/CroppedCells/Unwounded/Fish4/cell10/deconvolved,/Users/akennard/Analysis/2019-06-13_3dpf_Np63ix_injUASmNeonGreen/CroppedCells/Unwounded/Fish4/cell10/deconvolved,0.2323,0.25,2,45,Unwounded,4,10,20190613,1,1,3,noWound
105,/Users/akennard/Analysis/2019-06-13_3dpf_Np63ix_injUASmNeonGreen/CroppedCells/Unwounded/Fish4/cell04/deconvolved,/Users/akennard/Analysis/2019-06-13_3dpf_Np63ix_injUASmNeonGreen/CroppedCells/Unwounded/Fish4/cell04/deconvolved,0.2323,0.25,2,45,Unwounded,4,4,20190613,1,1,3,noWound
106,/Users/akennard/Analysis/2019-06-13_3dpf_Np63ix_injUASmNeonGreen/CroppedCells/Unwounded/Fish4/cell03/deconvolved,/Users/akennard/Analysis/2019-06-13_3dpf_Np63ix_injUASmNeonGreen/CroppedCells/Unwounded/Fish4/cell03/deconvolved,0.2323,0.25,2,45,Unwounded,4,3,20190613,1,1,3,noWound
107,/Users/akennard/Analysis/2019-06-13_3dpf_Np63ix_injUASmNeonGreen/CroppedCells/Unwounded/Fish4/cell06/deconvolved,/Users/akennard/Analysis/2019-06-13_3dpf_Np63ix_injUASmNeonGreen/CroppedCells/Unwounded/Fish4/cell06/deconvolved,0.2323,0.25,2,45,Unwounded,4,6,20190613,1,1,3,noWound
108,/Users/akennard/Analysis/2019-06-13_3dpf_Np63ix_injUASmNeonGreen/CroppedCells/Unwounded/Fish4/cell01/deconvolved,/Users/akennard/Analysis/2019-06-13_3dpf_Np63ix_injUASmNeonGreen/CroppedCells/Unwounded/Fish4/cell01/deconvolved,0.2323,0.25,2,45,Unwounded,4,1,20190613,1,1,3,noWound
109,/Users/akennard/Analysis/2019-06-13_3dpf_Np63ix_injUASmNeonGreen/CroppedCells/Unwounded/Fish4/cell08/deconvolved,/Users/akennard/Analysis/2019-06-13_3dpf_Np63ix_injUASmNeonGreen/CroppedCells/Unwounded/Fish4/cell08/deconvolved,0.2323,0.25,2,45,Unwounded,4,8,20190613,1,1,3,noWound
111,/Users/akennard/Analysis/2019-06-13_3dpf_Np63ix_injUASmNeonGreen/CroppedCells/Unwounded/Fish4/cell07/deconvolved,/Users/akennard/Analysis/2019-06-13_3dpf_Np63ix_injUASmNeonGreen/CroppedCells/Unwounded/Fish4/cell07/deconvolved,0.2323,0.25,2,45,Unwounded,4,7,20190613,1,1,3,noWound
112,/Users/akennard/Analysis/2019-06-13_3dpf_Np63ix_injUASmNeonGreen/CroppedCells/Unwounded/Fish3/cell02/deconvolved,/Users/akennard/Analysis/2019-06-13_3dpf_Np63ix_injUASmNeonGreen/CroppedCells/Unwounded/Fish3/cell02/deconvolved,0.2323,0.25,2,45,Unwounded,3,2,20190613,1,1,3,noWound
113,/Users/akennard/Analysis/2019-06-13_3dpf_Np63ix_injUASmNeonGreen/CroppedCells/Unwounded/Fish3/cell05/deconvolved,/Users/akennard/Analysis/2019-06-13_3dpf_Np63ix_injUASmNeonGreen/CroppedCells/Unwounded/Fish3/cell05/deconvolved,0.2323,0.25,2,45,Unwounded,3,5,20190613,1,1,3,noWound
115,/Users/akennard/Analysis/2019-06-13_3dpf_Np63ix_injUASmNeonGreen/CroppedCells/Unwounded/Fish3/cell03/deconvolved,/Users/akennard/Analysis/2019-06-13_3dpf_Np63ix_injUASmNeonGreen/CroppedCells/Unwounded/Fish3/cell03/deconvolved,0.2323,0.25,2,45,Unwounded,3,3,20190613,1,1,3,noWound
116,/Users/akennard/Analysis/2019-06-13_3dpf_Np63ix_injUASmNeonGreen/CroppedCells/Unwounded/Fish3/cell06/deconvolved,/Users/akennard/Analysis/2019-06-13_3dpf_Np63ix_injUASmNeonGreen/CroppedCells/Unwounded/Fish3/cell06/deconvolved,0.2323,0.25,2,45,Unwounded,3,6,20190613,1,1,3,noWound
117,/Users/akennard/Analysis/2019-06-13_3dpf_Np63ix_injUASmNeonGreen/CroppedCells/Unwounded/Fish3/cell01/deconvolved,/Users/akennard/Analysis/2019-06-13_3dpf_Np63ix_injUASmNeonGreen/CroppedCells/Unwounded/Fish3/cell01/deconvolved,0.2323,0.25,2,45,Unwounded,3,1,20190613,1,1,3,noWound
118,/Users/akennard/Analysis/2019-06-13_3dpf_Np63ix_injUASmNeonGreen/CroppedCells/Unwounded/Fish3/cell08/deconvolved,/Users/akennard/Analysis/2019-06-13_3dpf_Np63ix_injUASmNeonGreen/CroppedCells/Unwounded/Fish3/cell08/deconvolved,0.2323,0.25,2,45,Unwounded,3,8,20190613,1,1,3,noWound
119,/Users/akennard/Analysis/2019-06-13_3dpf_Np63ix_injUASmNeonGreen/CroppedCells/Unwounded/Fish3/cell09/deconvolved,/Users/akennard/Analysis/2019-06-13_3dpf_Np63ix_injUASmNeonGreen/CroppedCells/Unwounded/Fish3/cell09/deconvolved,0.2323,0.25,2,45,Unwounded,3,9,20190613,1,1,3,noWound
120,/Users/akennard/Analysis/2019-06-13_3dpf_Np63ix_injUASmNeonGreen/CroppedCells/Unwounded/Fish3/cell07/deconvolved,/Users/akennard/Analysis/2019-06-13_3dpf_Np63ix_injUASmNeonGreen/CroppedCells/Unwounded/Fish3/cell07/deconvolved,0.2323,0.25,2,45,Unwounded,3,7,20190613,1,1,3,noWound
121,/Users/akennard/Analysis/2019-10-09_3dpf_Np63Gal4_injUASmNG-mRuby3CAAX/CroppedCells/NaCl68mM/Fish2/cell02/deconvolved,/Users/akennard/Analysis/2019-10-09_3dpf_Np63Gal4_injUASmNG-mRuby3CAAX/CroppedCells/NaCl68mM/Fish2/cell02/deconvolved,0.2323,0.25,2,45,NaCl68mM,2,2,20191009,1,1,2,NaCl068mM
123,/Users/akennard/Analysis/2019-10-09_3dpf_Np63Gal4_injUASmNG-mRuby3CAAX/CroppedCells/NaCl68mM/Fish2/cell04/deconvolved,/Users/akennard/Analysis/2019-10-09_3dpf_Np63Gal4_injUASmNG-mRuby3CAAX/CroppedCells/NaCl68mM/Fish2/cell04/deconvolved,0.2323,0.25,2,45,NaCl68mM,2,4,20191009,1,1,2,NaCl068mM
125,/Users/akennard/Analysis/2019-10-09_3dpf_Np63Gal4_injUASmNG-mRuby3CAAX/CroppedCells/NaCl68mM/Fish2/cell06/deconvolved,/Users/akennard/Analysis/2019-10-09_3dpf_Np63Gal4_injUASmNG-mRuby3CAAX/CroppedCells/NaCl68mM/Fish2/cell06/deconvolved,0.2323,0.25,2,45,NaCl68mM,2,6,20191009,1,1,2,NaCl068mM
126,/Users/akennard/Analysis/2019-10-09_3dpf_Np63Gal4_injUASmNG-mRuby3CAAX/CroppedCells/NaCl68mM/Fish2/cell01/deconvolved,/Users/akennard/Analysis/2019-10-09_3dpf_Np63Gal4_injUASmNG-mRuby3CAAX/CroppedCells/NaCl68mM/Fish2/cell01/deconvolved,0.2323,0.25,2,45,NaCl68mM,2,1,20191009,1,1,2,NaCl068mM
127,/Users/akennard/Analysis/2019-10-09_3dpf_Np63Gal4_injUASmNG-mRuby3CAAX/CroppedCells/NaCl68mM/Fish3/cell02/deconvolved,/Users/akennard/Analysis/2019-10-09_3dpf_Np63Gal4_injUASmNG-mRuby3CAAX/CroppedCells/NaCl68mM/Fish3/cell02/deconvolved,0.2323,0.25,2,45,NaCl68mM,3,2,20191009,1,1,2,NaCl068mM
128,/Users/akennard/Analysis/2019-10-09_3dpf_Np63Gal4_injUASmNG-mRuby3CAAX/CroppedCells/NaCl68mM/Fish3/cell05/deconvolved,/Users/akennard/Analysis/2019-10-09_3dpf_Np63Gal4_injUASmNG-mRuby3CAAX/CroppedCells/NaCl68mM/Fish3/cell05/deconvolved,0.2323,0.25,2,45,NaCl68mM,3,5,20191009,1,1,2,NaCl068mM
129,/Users/akennard/Analysis/2019-10-09_3dpf_Np63Gal4_injUASmNG-mRuby3CAAX/CroppedCells/NaCl68mM/Fish3/cell04/deconvolved,/Users/akennard/Analysis/2019-10-09_3dpf_Np63Gal4_injUASmNG-mRuby3CAAX/CroppedCells/NaCl68mM/Fish3/cell04/deconvolved,0.2323,0.25,2,45,NaCl68mM,3,4,20191009,1,1,2,NaCl068mM
131,/Users/akennard/Analysis/2019-10-09_3dpf_Np63Gal4_injUASmNG-mRuby3CAAX/CroppedCells/NaCl68mM/Fish3/cell06/deconvolved,/Users/akennard/Analysis/2019-10-09_3dpf_Np63Gal4_injUASmNG-mRuby3CAAX/CroppedCells/NaCl68mM/Fish3/cell06/deconvolved,0.2323,0.25,2,45,NaCl68mM,3,6,20191009,1,1,2,NaCl068mM
132,/Users/akennard/Analysis/2019-10-09_3dpf_Np63Gal4_injUASmNG-mRuby3CAAX/CroppedCells/NaCl68mM/Fish3/cell01/deconvolved,/Users/akennard/Analysis/2019-10-09_3dpf_Np63Gal4_injUASmNG-mRuby3CAAX/CroppedCells/NaCl68mM/Fish3/cell01/deconvolved,0.2323,0.25,2,45,NaCl68mM,3,1,20191009,1,1,2,NaCl068mM
133,/Users/akennard/Analysis/2019-10-09_3dpf_Np63Gal4_injUASmNG-mRuby3CAAX/CroppedCells/NaCl68mM/Fish1/cell02/deconvolved,/Users/akennard/Analysis/2019-10-09_3dpf_Np63Gal4_injUASmNG-mRuby3CAAX/CroppedCells/NaCl68mM/Fish1/cell02/deconvolved,0.2323,0.25,2,45,NaCl68mM,1,2,20191009,1,1,2,NaCl068mM
134,/Users/akennard/Analysis/2019-10-09_3dpf_Np63Gal4_injUASmNG-mRuby3CAAX/CroppedCells/NaCl68mM/Fish1/cell04/deconvolved,/Users/akennard/Analysis/2019-10-09_3dpf_Np63Gal4_injUASmNG-mRuby3CAAX/CroppedCells/NaCl68mM/Fish1/cell04/deconvolved,0.2323,0.25,2,45,NaCl68mM,1,4,20191009,1,1,2,NaCl068mM
135,/Users/akennard/Analysis/2019-10-09_3dpf_Np63Gal4_injUASmNG-mRuby3CAAX/CroppedCells/NaCl68mM/Fish1/cell03/deconvolved,/Users/akennard/Analysis/2019-10-09_3dpf_Np63Gal4_injUASmNG-mRuby3CAAX/CroppedCells/NaCl68mM/Fish1/cell03/deconvolved,0.2323,0.25,2,45,NaCl68mM,1,3,20191009,1,1,2,NaCl068mM
136,/Users/akennard/Analysis/2019-10-09_3dpf_Np63Gal4_injUASmNG-mRuby3CAAX/CroppedCells/NaCl68mM/Fish1/cell01/deconvolved,/Users/akennard/Analysis/2019-10-09_3dpf_Np63Gal4_injUASmNG-mRuby3CAAX/CroppedCells/NaCl68mM/Fish1/cell01/deconvolved,0.2323,0.25,2,45,NaCl68mM,1,1,20191009,1,0,2,NaCl068mM
137,/Users/akennard/Analysis/2019-10-09_3dpf_Np63Gal4_injUASmNG-mRuby3CAAX/CroppedCells/NaCl100mM/Fish2/cell02/deconvolved,/Users/akennard/Analysis/2019-10-09_3dpf_Np63Gal4_injUASmNG-mRuby3CAAX/CroppedCells/NaCl100mM/Fish2/cell02/deconvolved,0.2323,0.25,2,45,NaCl100mM,2,2,20191009,1,1,2,NaCl100mM
140,/Users/akennard/Analysis/2019-10-09_3dpf_Np63Gal4_injUASmNG-mRuby3CAAX/CroppedCells/NaCl100mM/Fish2/cell03/deconvolved,/Users/akennard/Analysis/2019-10-09_3dpf_Np63Gal4_injUASmNG-mRuby3CAAX/CroppedCells/NaCl100mM/Fish2/cell03/deconvolved,0.2323,0.25,2,45,NaCl100mM,2,3,20191009,1,1,2,NaCl100mM
141,/Users/akennard/Analysis/2019-10-09_3dpf_Np63Gal4_injUASmNG-mRuby3CAAX/CroppedCells/NaCl100mM/Fish2/cell06/deconvolved,/Users/akennard/Analysis/2019-10-09_3dpf_Np63Gal4_injUASmNG-mRuby3CAAX/CroppedCells/NaCl100mM/Fish2/cell06/deconvolved,0.2323,0.25,2,45,NaCl100mM,2,6,20191009,0,0,2,NaCl100mM
142,/Users/akennard/Analysis/2019-10-09_3dpf_Np63Gal4_injUASmNG-mRuby3CAAX/CroppedCells/NaCl100mM/Fish2/cell01/deconvolved,/Users/akennard/Analysis/2019-10-09_3dpf_Np63Gal4_injUASmNG-mRuby3CAAX/CroppedCells/NaCl100mM/Fish2/cell01/deconvolved,0.2323,0.25,2,45,NaCl100mM,2,1,20191009,1,1,2,NaCl100mM
143,/Users/akennard/Analysis/2019-10-09_3dpf_Np63Gal4_injUASmNG-mRuby3CAAX/CroppedCells/NaCl100mM/Fish2/cell07/deconvolved,/Users/akennard/Analysis/2019-10-09_3dpf_Np63Gal4_injUASmNG-mRuby3CAAX/CroppedCells/NaCl100mM/Fish2/cell07/deconvolved,0.2323,0.25,2,45,NaCl100mM,2,7,20191009,1,1,2,NaCl100mM
144,/Users/akennard/Analysis/2019-10-09_3dpf_Np63Gal4_injUASmNG-mRuby3CAAX/CroppedCells/NaCl100mM/Fish1/cell02/deconvolved,/Users/akennard/Analysis/2019-10-09_3dpf_Np63Gal4_injUASmNG-mRuby3CAAX/CroppedCells/NaCl100mM/Fish1/cell02/deconvolved,0.2323,0.25,2,45,NaCl100mM,1,2,20191009,0,1,2,NaCl100mM
145,/Users/akennard/Analysis/2019-10-09_3dpf_Np63Gal4_injUASmNG-mRuby3CAAX/CroppedCells/NaCl100mM/Fish1/cell05/deconvolved,/Users/akennard/Analysis/2019-10-09_3dpf_Np63Gal4_injUASmNG-mRuby3CAAX/CroppedCells/NaCl100mM/Fish1/cell05/deconvolved,0.2323,0.25,2,45,NaCl100mM,1,5,20191009,0,0,2,NaCl100mM
147,/Users/akennard/Analysis/2019-10-09_3dpf_Np63Gal4_injUASmNG-mRuby3CAAX/CroppedCells/NaCl100mM/Fish1/cell03/deconvolved,/Users/akennard/Analysis/2019-10-09_3dpf_Np63Gal4_injUASmNG-mRuby3CAAX/CroppedCells/NaCl100mM/Fish1/cell03/deconvolved,0.2323,0.25,2,45,NaCl100mM,1,3,20191009,0,1,2,NaCl100mM
149,/Users/akennard/Analysis/2019-10-09_3dpf_Np63Gal4_injUASmNG-mRuby3CAAX/CroppedCells/NaCl100mM/Fish1/cell01/deconvolved,/Users/akennard/Analysis/2019-10-09_3dpf_Np63Gal4_injUASmNG-mRuby3CAAX/CroppedCells/NaCl100mM/Fish1/cell01/deconvolved,0.2323,0.25,2,45,NaCl100mM,1,1,20191009,0,1,2,NaCl100mM
