label,pathToData,dataPrefix,experimentDate,dpf,genotype,experimentalTreatmentPreWounding,experimentalTreatmentPostWounding,administrationTimeMinutesPostWounding,secondsPerFrame
HypoHeadIsoNaClTail_4,/Users/akennard/Analysis/2020-02-18_3dpf_Np63Gal4UASLifeActEGFP_hsp70myoLC_TwoChamber/20200218_20x_Anterior-E3_Posterior-E3135mMNaCl_Wounding_1/output,movie_01_trackingRun001_,2020-02-18,3,Tg(DNp63:Gal4)xTg(UAS:LifeAct-EGFP;hsp70l:myoLC-mApple),AntE3_PostNaCl135mM,none,-1,30
HypoHeadIsoNaClTail_5,/Users/akennard/Analysis/2020-02-18_3dpf_Np63Gal4UASLifeActEGFP_hsp70myoLC_TwoChamber/20200218_20x_Anterior-E3_Posterior-E3135mMNaCl_Wounding_2/output,movie_02_trackingRun001_,2020-02-18,3,Tg(DNp63:Gal4)xTg(UAS:LifeAct-EGFP;hsp70l:myoLC-mApple),AntE3_PostNaCl135mM,none,-1,30
IsoNaClHeadHypoTail_4,/Users/akennard/Analysis/2020-02-18_3dpf_Np63Gal4UASLifeActEGFP_hsp70myoLC_TwoChamber/20200218_20x_Anterior-E3135mMNaCl_Posterior-E3_Wounding_1/output,movie_03_trackingRun001_,2020-02-18,3,Tg(DNp63:Gal4)xTg(UAS:LifeAct-EGFP;hsp70l:myoLC-mApple),AntNaCl135mM_PostE3,none,-1,30
IsoNaClHeadHypoTail_5,/Users/akennard/Analysis/2020-02-18_3dpf_Np63Gal4UASLifeActEGFP_hsp70myoLC_TwoChamber/20200218_20x_Anterior-E3135mMNaCl_Posterior-E3_Wounding_2/output,movie_04_trackingRun001_,2020-02-18,3,Tg(DNp63:Gal4)xTg(UAS:LifeAct-EGFP;hsp70l:myoLC-mApple),AntNaCl135mM_PostE3,none,-1,30
IsoNaClHeadHypoTail_6,/Users/akennard/Analysis/2020-02-18_3dpf_Np63Gal4UASLifeActEGFP_hsp70myoLC_TwoChamber/20200218_20x_Anterior-E3135mMNaCl_Posterior-E3_Wounding_3/output,movie_05_trackingRun001_,2020-02-18,3,Tg(DNp63:Gal4)xTg(UAS:LifeAct-EGFP;hsp70l:myoLC-mApple),AntNaCl135mM_PostE3,none,-1,30
IsoNaClHeadHypoTail_7,/Users/akennard/Analysis/2020-02-18_3dpf_Np63Gal4UASLifeActEGFP_hsp70myoLC_TwoChamber/20200218_20x_Anterior-E3135mMNaCl_Posterior-E3_Wounding_7/output,movie_06_trackingRun001_,2020-02-18,3,Tg(DNp63:Gal4)xTg(UAS:LifeAct-EGFP;hsp70l:myoLC-mApple),AntNaCl135mM_PostE3,none,-1,30
HypoHeadHypoTail_1,/Users/akennard/Analysis/2020-02-18_3dpf_Np63Gal4UASLifeActEGFP_hsp70myoLC_TwoChamber/20200218_20x_L-E3_R-E3_Wounding_2/output,movie_07_trackingRun001_,2020-02-18,3,Tg(DNp63:Gal4)xTg(UAS:LifeAct-EGFP;hsp70l:myoLC-mApple),AntE3_PostE3,none,-1,30
HypoHeadHypoTail_2,/Users/akennard/Analysis/2020-02-18_3dpf_Np63Gal4UASLifeActEGFP_hsp70myoLC_TwoChamber/20200218_20x_L-E3_R-E3_Wounding_3/output,movie_08_trackingRun001_,2020-02-18,3,Tg(DNp63:Gal4)xTg(UAS:LifeAct-EGFP;hsp70l:myoLC-mApple),AntE3_PostE3,none,-1,30
HypoHeadHypoTail_3,/Users/akennard/Analysis/2020-02-18_3dpf_Np63Gal4UASLifeActEGFP_hsp70myoLC_TwoChamber/20200218_20x_L-E3_R-E3_Wounding_4/output,movie_09_trackingRun001_,2020-02-18,3,Tg(DNp63:Gal4)xTg(UAS:LifeAct-EGFP;hsp70l:myoLC-mApple),AntE3_PostE3,none,-1,30
HypoHeadHypoTail_4,/Users/akennard/Analysis/2020-02-18_3dpf_Np63Gal4UASLifeActEGFP_hsp70myoLC_TwoChamber/20200218_20x_L-E3_R-E3_Wounding_5/output,movie_10_trackingRun001_,2020-02-18,3,Tg(DNp63:Gal4)xTg(UAS:LifeAct-EGFP;hsp70l:myoLC-mApple),AntE3_PostE3,none,-1,30
HypoHeadHypoTail_5,/Users/akennard/Analysis/2020-02-18_3dpf_Np63Gal4UASLifeActEGFP_hsp70myoLC_TwoChamber/20200218_20x_L-E3_R-E3_Wounding_6/output,movie_11_trackingRun000_,2020-02-18,3,Tg(DNp63:Gal4)xTg(UAS:LifeAct-EGFP;hsp70l:myoLC-mApple),AntE3_PostE3,none,-1,30
HypoHeadIsoNaClTail_6,/Users/akennard/Analysis/2020-02-20_3dpf_Np63Gal4UASLifeActEGFP_hsp70myoLC_TwoChamber/20200220_20x_Anterior-E3_Posterior-E3135mMNaCl_Wounding_1/output,movie_12_trackingRun000_,2020-02-20,3,Tg(DNp63:Gal4)xTg(UAS:LifeAct-EGFP;hsp70l:myoLC-mApple),AntE3_PostNaCl135mM,none,-1,30
HypoHeadIsoNaClTail_7,/Users/akennard/Analysis/2020-02-20_3dpf_Np63Gal4UASLifeActEGFP_hsp70myoLC_TwoChamber/20200220_20x_Anterior-E3_Posterior-E3135mMNaCl_Wounding_2/output,movie_13_trackingRun000_,2020-02-20,3,Tg(DNp63:Gal4)xTg(UAS:LifeAct-EGFP;hsp70l:myoLC-mApple),AntE3_PostNaCl135mM,none,-1,30
IsoNaClHeadIsoNaClTail_1,/Users/akennard/Analysis/2020-02-20_3dpf_Np63Gal4UASLifeActEGFP_hsp70myoLC_TwoChamber/20200220_20x_Anterior-E3135mMNaCl_Posterior-E3135mMNaCl_Wounding_1/output,movie_14_trackingRun000_,2020-02-20,3,Tg(DNp63:Gal4)xTg(UAS:LifeAct-EGFP;hsp70l:myoLC-mApple),AntNaCl135mM_PostNaCl135mM,none,-1,30
IsoNaClHeadIsoNaClTail_2,/Users/akennard/Analysis/2020-02-20_3dpf_Np63Gal4UASLifeActEGFP_hsp70myoLC_TwoChamber/20200220_20x_Anterior-E3135mMNaCl_Posterior-E3135mMNaCl_Wounding_3/output,movie_15_trackingRun000_,2020-02-20,3,Tg(DNp63:Gal4)xTg(UAS:LifeAct-EGFP;hsp70l:myoLC-mApple),AntNaCl135mM_PostNaCl135mM,none,-1,30
IsoNaClHeadIsoNaClTail_3,/Users/akennard/Analysis/2020-02-20_3dpf_Np63Gal4UASLifeActEGFP_hsp70myoLC_TwoChamber/20200220_20x_Anterior-E3135mMNaCl_Posterior-E3135mMNaCl_Wounding_4/output,movie_16_trackingRun000_,2020-02-20,3,Tg(DNp63:Gal4)xTg(UAS:LifeAct-EGFP;hsp70l:myoLC-mApple),AntNaCl135mM_PostNaCl135mM,none,-1,30
IsoNaClHeadIsoNaClTail_4,/Users/akennard/Analysis/2020-02-20_3dpf_Np63Gal4UASLifeActEGFP_hsp70myoLC_TwoChamber/20200220_20x_Anterior-E3135mMNaCl_Posterior-E3135mMNaCl_Wounding_5/output,movie_17_trackingRun000_,2020-02-20,3,Tg(DNp63:Gal4)xTg(UAS:LifeAct-EGFP;hsp70l:myoLC-mApple),AntNaCl135mM_PostNaCl135mM,none,-1,30
